{
    "users": {
        "admin": {
            "email": "admin",
            "password": "qasdwe"
        },
        "pushtuk": {
            "email": "pushtuk",
            "password": "qasdwe"
        }
    },
    "parsers":{
        "1":{
            "id":"1",
            "name":"qwe",
            "description":"qwe",
            "LastChange":"qwe",
            "snapshot":"qwe"
        },
        "2":{
            "id":"2",
            "name":"asd",
            "description":"asd",
            "lastChange":"asd",
            "snapshot":"asd"
        }
    }
}